Lab 5 - Modelling I
…
Important

Failure to cite outside resources used, including Large Language Models like Chat GPT, is a violation of the Duke Community Standard and will be treated as such.

Part 1 - Smoking during pregnancy

Question 1

We are interested in the impact of smoking during pregnancy. Since it is not possible to run a randomized controlled experiment to investigate this impact, we will instead use a data set has been of interest to medical researchers who are studying the relation between habits and practices of expectant mothers and the birth of their children. This is a random sample of 1,000 cases from a data set released in 2014 by the state of North Carolina. The data set is called births14, and it is included in the openintro package you loaded at the beginning of the assignment.

Create a version of the births14 data set dropping observations where there are NAs for habit. You can call this version births14_habitgiven.

births14

# A tibble: 1,000 × 13
    fage  mage mature     weeks premie visits gained weight lowbirthweight sex  
   <int> <dbl> <chr>      <dbl> <chr>   <dbl>  <dbl>  <dbl> <chr>          <chr>
 1    34    34 younger m…    37 full …     14     28   6.96 not low        male 
 2    36    31 younger m…    41 full …     12     41   8.86 not low        fema…
 3    37    36 mature mom    37 full …     10     28   7.51 not low        fema…
 4    NA    16 younger m…    38 full …     NA     29   6.19 not low        male 
 5    32    31 younger m…    36 premie     12     48   6.75 not low        fema…
 6    32    26 younger m…    39 full …     14     45   6.69 not low        fema…
 7    37    36 mature mom    36 premie     10     20   6.13 not low        fema…
 8    29    24 younger m…    40 full …     13     65   6.74 not low        male 
 9    30    32 younger m…    39 full …     15     25   8.94 not low        fema…
10    29    26 younger m…    39 full …     11     22   9.12 not low        male 
# ℹ 990 more rows
# ℹ 3 more variables: habit <chr>, marital <chr>, whitemom <chr>
…
